{
  "files": {
    "main.css": "/static/css/main.b1f5e882.chunk.css",
    "main.js": "/static/js/main.eb83cb4b.chunk.js",
    "main.js.map": "/static/js/main.eb83cb4b.chunk.js.map",
    "runtime-main.js": "/static/js/runtime-main.81fe6c7a.js",
    "runtime-main.js.map": "/static/js/runtime-main.81fe6c7a.js.map",
    "static/css/2.4aad7e85.chunk.css": "/static/css/2.4aad7e85.chunk.css",
    "static/js/2.c05d6895.chunk.js": "/static/js/2.c05d6895.chunk.js",
    "static/js/2.c05d6895.chunk.js.map": "/static/js/2.c05d6895.chunk.js.map",
    "index.html": "/index.html",
    "static/css/2.4aad7e85.chunk.css.map": "/static/css/2.4aad7e85.chunk.css.map",
    "static/css/main.b1f5e882.chunk.css.map": "/static/css/main.b1f5e882.chunk.css.map",
    "static/js/2.c05d6895.chunk.js.LICENSE.txt": "/static/js/2.c05d6895.chunk.js.LICENSE.txt"
  },
  "entrypoints": [
    "static/js/runtime-main.81fe6c7a.js",
    "static/css/2.4aad7e85.chunk.css",
    "static/js/2.c05d6895.chunk.js",
    "static/css/main.b1f5e882.chunk.css",
    "static/js/main.eb83cb4b.chunk.js"
  ]
}